material Material#29
{
	technique
	{
		pass
		{
			ambient 0.588 0.588 0.588 1
			diffuse 0.588 0.588 0.588 1
			specular 0 0 0 1 10

			texture_unit
			{
				texture 1030582343_248427.jpg
			}
		}

	}

}



material Material#30
{
	technique
	{
		pass
		{
			ambient 0.588 0.588 0.588 1
			diffuse 0.588 0.588 0.588 1
			specular 0 0 0 1 10

			texture_unit
			{
				texture 1030582343_248427.jpg
			}
		}

	}

}



material Material#31
{
	technique
	{
		pass
		{
			ambient 0.588 0.588 0.588 1
			diffuse 0.588 0.588 0.588 1
			specular 0 0 0 1 10

			texture_unit
			{
				texture 4d8994f74538f31e2d820000.jpg
			}
		}

	}

}